инфинити́в,stem,значе́ние,вид,уро́к,sec,ch,СВ,НСВ,irregular,Chapters,Глава́ 1,Глава́ 3,Глава́ 4,Глава́ 5,Глава́ 6,Глава́ 7,Глава́ 8,Глава́ 9,Глава́ 10,Глава́ 11,Глава́ 12,Глава́ 1 Sections,Глава́ 3 Sections,Глава́ 4 Sections,Глава́ 5 Sections,Глава́ 6 Sections,Глава́ 7 Sections,Глава́ 8 Sections,Глава́ 9 Sections,Глава́ 10 Sections,Глава́ 11 Sections,Глава́ 12 Sections,1.2,3.1,3.3,3.4,4.3,4.4,5.1,6.1,6.2,6.3,6.4,6.5,7.1,7.2,7.3,7.5,8.1,8.2,8.3,8.5,9.1,9.2,9.3,9.4,10.1,10.2,10.3,10.4,10.5,10.6,10.7,11.1,11.2,11.3,11.4,11.5,11.6,11.7,11.8,12.1,12.2,12.3,12.4
быть,б[ых][у́]д+,to be,НСВ,1.2,2,1,,,,Глава́ 1,быть,де́лать,вспомина́ть,отмеча́ть,отмеча́ть,зада́ть,занима́ться,име́ть,идти́,вы́йти за́муж,уйти́,1.2,3.1,4.3,5.1,6.1,7.1,8.1,9.1,10.1,11.1,12.1,быть,де́лать,повтори́ть,пить,вспомина́ть,ви́деть,отмеча́ть,смотре́ть,есть,умере́ть,лежа́ть,сказа́ть,зада́ть,подари́ть,показа́ть,позвони́ть,занима́ться,ката́ться,слы́шать,стать,име́ть,начина́ться,входи́ть,помо́чь,идти́,верну́ться,пойти́,найти́,ве́рить,путеше́ствовать,сходи́ть,вы́йти за́муж,нача́ть,прожи́ть,наде́ть,перее́хать,опа́здывать,боле́ть,боле́ть,уйти́,поверну́ть,отвести́,спасти́
де́лать,де́лай+,to do; to make,НСВ,3.1,1,3,сде́лать,,,Глава́ 3,,петь,жале́ть,,смотре́ть,дать,собира́ться,начина́ться,тренирова́ться,выходи́ть за́муж,уходи́ть,,3.3,4.4,,6.2,7.2,8.2,9.2,10.2,11.2,12.2,,петь,,писа́ть,жале́ть,,,говори́ть,чини́ть,вы́пить,сиде́ть,поста́вить,дать,купи́ть,пока́зывать,звони́ть,собира́ться,научи́ться,молча́ть,наде́яться,,конча́ться,нали́ть,помога́ть,тренирова́ться,бежа́ть,побежа́ть,находи́ть,носи́ть,поплы́ть,съе́здить,выходи́ть за́муж,зако́нчить,ложи́ться,поме́рить,служи́ть,опозда́ть,заболе́ть,беспоко́иться,уходи́ть,перей́ти́,отнести́,улете́ть
петь,п[е́][о]й+,to sing,НСВ,3.1,1,3,,,,Глава́ 4,,чита́ть,ви́деть,,говори́ть,дава́ть,преподава́ть,конча́ться,верну́ться,пожени́ться,вы́й́ти,,3.4,,,6.3,7.3,8.3,9.3,10.3,11.3,12.3,,чита́ть,,танцева́ть,,,,учи́ться,съесть,чи́стить,стоя́ть,класть,дава́ть,дари́ть,укра́сть,разгова́ривать,преподава́ть,купа́ться,фотографи́ровать,,,,прийти́,мочь,,возвраща́ться,,е́хать,води́ть,плыть,плати́ть,пожени́ться,поступа́ть,встава́ть,одева́ться,расти́,спеши́ть,простуди́ться,,вы́й́ти,подой́ти́,перевезти́,спаса́ть
чита́ть,чита́й+,to read,НСВ,3.1,1,3,прочита́ть,,,Глава́ 5,,слу́шать,,,учи́ться,передава́ть,интересова́ться,входи́ть,бежа́ть,поздравля́ть,приезжа́ть,,,,,6.4,7.5,8.5,9.4,10.4,11.4,12.4,,слу́шать,,про́бовать,,,,спать,почини́ть,помы́ть,висе́ть,положи́ть,передава́ть,покупа́ть,красть,поговори́ть,интересова́ться,выигра́ть,случи́ться,,,,приходи́ть,получа́ть,,,,пое́хать,пове́рить,пла́вать,заплати́ть,поздравля́ть,переста́ть,лечь,надева́ть,вы́расти,встреча́ть,простужа́ться,,приезжа́ть,дой́ти́,донести́,улета́ть
слу́шать,слу́шай+,to listen,НСВ,3.1,1,3,послу́шать,,,Глава́ 6,,игра́ть,,,спать,переда́ть,ката́ться,нали́ть,возвраща́ться,поздра́вить,прие́хать,,,,,,,,,10.5,11.5,,,игра́ть,,целова́ться,,,,кури́ть,пригото́вить,почи́стить,,взять,переда́ть,приглаша́ть,,перезвони́ть,,выи́грывать,крича́ть,,,,налива́ть,отвеча́ть,,,,потеря́ть,лета́ть,,,поздра́вить,гото́виться,встать,ме́рить,продолжа́ть,встре́тить,ка́шлять,,прие́хать,пройти́,привезти́,прилете́ть
игра́ть,игра́й+,to play,НСВ,3.1,1,3,поигра́ть,,,Глава́ 7,,счита́ть,,,кури́ть,задава́ть,научи́ться,прийти́,пойти́,жела́ть,уе́хать,,,,,,,,,10.6,11.6,,,счита́ть,,иска́ть,,,,ходи́ть,прочита́ть,принима́ть,,ста́вить,задава́ть,пригласи́ть,,,,проигра́ть,,,,,заходи́ть,отве́тить,,,,теря́ть,лете́ть,,,жела́ть,подгото́виться,сади́ться,оде́ться,,,чиха́ть,,уе́хать,повора́чивать,вы́глядеть,прилета́ть
счита́ть,счита́й+,to count; to consider,НСВ,3.1,1,3,посчита́ть,,,Глава́ 8,,рабо́тать,,,ходи́ть,узнава́ть,купа́ться,приходи́ть,побежа́ть,пожела́ть,уезжа́ть,,,,,,,,,10.7,11.7,,,рабо́тать,,рисова́ть,,,,е́здить,написа́ть,приня́ть,,брать,узнава́ть,получи́ть,,,,прои́грывать,,,,,ждать,посыла́ть,,,,,полете́ть,,,пожела́ть,зака́нчивать,сесть,выбира́ть,,,чихну́ть,,уезжа́ть,переходи́ть,отводи́ть,забы́ть
рабо́тать,рабо́тай+,to work,НСВ,3.1,1,3,,,,Глава́ 9,,жить,,,е́здить,продава́ть,выигра́ть,налива́ть,найти́,предложи́ть,выходи́ть,,,,,,,,,,,,,жить,,пла́кать,,,,повторя́ть,сде́лать,поза́втракать,,попроси́ть,продава́ть,,,,,репети́ровать,,,,,,посла́ть,,,,,вози́ть,,,предложи́ть,поступи́ть,,вы́брать,,,,,выходи́ть,подходи́ть,относи́ть,
жить,жив+,to live,НСВ,3.1,1,3,,,,Глава́ 10,,ду́мать,,,повторя́ть,прода́ть,выи́грывать,заходи́ть,находи́ть,предлага́ть,вой́ти́,,,,,,,,,,,,,ду́мать,,,,,,посмотре́ть,стро́ить,пообе́дать,,проси́ть,прода́ть,,,,,бе́гать,,,,,,смочь,,,,,вести́,,,предлага́ть,сдава́ть,,быва́ть,,,,,вой́ти́,доходи́ть,перевози́ть,
ду́мать,ду́май+,to think,НСВ,3.1,1,3,,,,Глава́ 11,,спряга́ть,,,посмотре́ть,сдава́ть,проигра́ть,ждать,е́хать,гуля́ть,происходи́ть,,,,,,,,,,,,,спряга́ть,,,,,,люби́ть,постро́ить,поу́жинать,,рассказа́ть,сдава́ть,,,,,,,,,,,печь,,,,,везти́,,,гуля́ть,сдать,,носи́ть,,,,,происходи́ть,проходи́ть,доноси́ть,
спряга́ть,с–пряга́й+,to conjugate,НСВ,3.1,1,3,,,,Глава́ 12,,понима́ть,,,люби́ть,сдать,прои́грывать,помо́чь,пое́хать,нача́ть,произой́ти́,,,,,,,,,,,,,понима́ть,,,,,,гото́вить,бить,поня́ть,,расска́зывать,сдать,,,,,,,,,,,испе́чь,,,,,нести́,,,,,,,,,,,произой́ти́,дое́хать,привози́ть,
понима́ть,по–нима́й+,to understand,НСВ,3.1,1,3,поня́ть,,,,,отдыха́ть,,,гото́вить,снима́ть,репети́ровать,помога́ть,потеря́ть,зако́нчить,поверну́ть,,,,,,,,,,,,,отдыха́ть,,,,,,по́мнить,разби́ть,за́втракать,,забыва́ть,снима́ть,,,,,,,,,,,,,,,,,,,,,,,,,,,,доезжа́ть,отвози́ть,
отдыха́ть,от–дыха́й+,to relax; to vacation,НСВ,3.1,1,3,отдохну́ть,,,,,знать,,,по́мнить,снять,бе́гать,мочь,теря́ть,поступа́ть,перей́ти́,,,,,,,,,,,,,знать,,,,,,уме́ть,реша́ть,обе́дать,,накрыва́ть,снять,,,,,,,,,,,,,,,,,,,,,,,,,,,,переезжа́ть,отвезти́,
знать,зна́й+,to know,НСВ,3.1,1,3,,,,,,повтори́ть,,,уме́ть,узна́ть,слы́шать,получа́ть,ве́рить,переста́ть,подой́ти́,,,,,,,,,,,,,,,,,,,,реши́ть,у́жинать,,накры́ть,узна́ть,,,,,,,,,,,,,,,,,,,,,,,,,,,,проезжа́ть,принести́,
повтори́ть,по–вторя́й+,to repeat; to review,НСВ,3.3,3,3,повтори́ть,,,,,пить,,,шути́ть,подари́ть,молча́ть,отвеча́ть,носи́ть,гото́виться,дой́ти́,,,,,,,,,,,,,,,,,,,,хоте́ть,открыва́ть,,убира́ть,,,,,,,,,,,,,,,,,,,,,,,,,,,,,прое́хать,приноси́ть,
пить,п[ь][их]й+,to drink,НСВ,3.4,4,3,вы́пить,,,,,писа́ть,,,есть,купи́ть,фотографи́ровать,отве́тить,води́ть,подгото́виться,пройти́,,,,,,,,,,,,,,,,,,,,учи́ть,откры́ть,,убра́ть,,,,,,,,,,,,,,,,,,,,,,,,,,,,,подъе́хать,,
писа́ть,писах+,to write,НСВ,3.4,4,3,написа́ть,,,,,танцева́ть,,,чини́ть,дари́ть,случи́ться,посыла́ть,пове́рить,зака́нчивать,повора́чивать,,,,,,,,,,,,,,,,,,,,вы́учить,закрыва́ть,,включа́ть,,,,,,,,,,,,,,,,,,,,,,,,,,,,,,,
танцева́ть,танцева́+,to dance,НСВ,3.4,4,3,,,,,,про́бовать,,,съесть,покупа́ть,крича́ть,посла́ть,лета́ть,поступи́ть,переходи́ть,,,,,,,,,,,,,,,,,,,,переводи́ть,закры́ть,,включи́ть,,,,,,,,,,,,,,,,,,,,,,,,,,,,,,,
про́бовать,про́бова+,to try,НСВ,3.4,4,3,попро́бовать,,,,,целова́ться,,,почини́ть,приглаша́ть,стать,смочь,лете́ть,сдава́ть,подходи́ть,,,,,,,,,,,,,,,,,,,,перевести́,мыть,,выключа́ть,,,,,,,,,,,,,,,,,,,,,,,,,,,,,,,
целова́ться,целова́+ся,to kiss,НСВ,3.4,4,3,поцелова́ться,,,,,иска́ть,,,пригото́вить,пригласи́ть,наде́яться,печь,полете́ть,сдать,доходи́ть,,,,,,,,,,,,,,,,,,,,уви́деть,попро́бовать,,вы́ключить,,,,,,,,,,,,,,,,,,,,,,,,,,,,,,,
иска́ть,исках+,to look for,НСВ,3.4,4,3,сыска́ть,,,,,рисова́ть,,,прочита́ть,получи́ть,,испе́чь,вози́ть,прожи́ть,проходи́ть,,,,,,,,,,,,,,,,,,,,записа́ть,спроси́ть,,,,,,,,,,,,,,,,,,,,,,,,,,,,,,,,,
рисова́ть,рисова́+,to draw,НСВ,3.4,4,3,нарисова́ть,,,,,пла́кать,,,написа́ть,показа́ть,,,вести́,ложи́ться,дое́хать,,,,,,,,,,,,,,,,,,,,запи́сывать,спра́шивать,,,,,,,,,,,,,,,,,,,,,,,,,,,,,,,,,
пла́кать,пла́ка+,to cry,НСВ,3.4,4,3,запла́кать,,,,,,,,сде́лать,пока́зывать,,,везти́,встава́ть,доезжа́ть,,,,,,,,,,,,,,,,,,,,нарисова́ть,,,,,,,,,,,,,,,,,,,,,,,,,,,,,,,,,,
вспомина́ть,вс–по–мина́й+,to remember,НСВ,4.3,3,4,вспо́мнить,,,,,,,,стро́ить,укра́сть,,,нести́,лечь,переезжа́ть,,,,,,,,,,,,,,,,,,,,,,,,,,,,,,,,,,,,,,,,,,,,,,,,,,,,,,
жале́ть,жале́й+,to pity,НСВ,4.3,3,4,пожале́ть,,,,,,,,постро́ить,красть,,,путеше́ствовать,встать,проезжа́ть,,,,,,,,,,,,,,,,,,,,,,,,,,,,,,,,,,,,,,,,,,,,,,,,,,,,,,
ви́деть,ви́де+,to see,НСВ,4.4,4,4,уви́деть,,,,,,,,бить,позвони́ть,,,поплы́ть,сади́ться,прое́хать,,,,,,,,,,,,,,,,,,,,,,,,,,,,,,,,,,,,,,,,,,,,,,,,,,,,,,
отмеча́ть,от–меча́й+,to celebrate,НСВ,5.1,1,5,отме́тить,,,,,,,,разби́ть,звони́ть,,,плыть,сесть,подъе́хать,,,,,,,,,,,,,,,,,,,,,,,,,,,,,,,,,,,,,,,,,,,,,,,,,,,,,,
смотре́ть,смотрех+,to watch; to look,НСВ,6.1,1,6,посмотре́ть,,,,,,,,реша́ть,разгова́ривать,,,пла́вать,наде́ть,отвести́,,,,,,,,,,,,,,,,,,,,,,,,,,,,,,,,,,,,,,,,,,,,,,,,,,,,,,
говори́ть,говори́+,to talk; to speak; to say,НСВ,6.1,1,6,сказа́ть,,,,,,,,реши́ть,поговори́ть,,,сходи́ть,поме́рить,отнести́,,,,,,,,,,,,,,,,,,,,,,,,,,,,,,,,,,,,,,,,,,,,,,,,,,,,,,
учи́ться,учих+ся,go to school; to study; to learn how,НСВ,6.1,1,6,,,,,,,,,хоте́ть,перезвони́ть,,,съе́здить,одева́ться,перевезти́,,,,,,,,,,,,,,,,,,,,,,,,,,,,,,,,,,,,,,,,,,,,,,,,,,,,,,
спать,сп[ах]+,to sleep,НСВ,6.1,1,6,,,,,,,,,учи́ть,,,,плати́ть,надева́ть,донести́,,,,,,,,,,,,,,,,,,,,,,,,,,,,,,,,,,,,,,,,,,,,,,,,,,,,,,
кури́ть,курих+,to smoke,НСВ,6.1,1,6,,,,,,,,,вы́учить,,,,заплати́ть,ме́рить,привезти́,,,,,,,,,,,,,,,,,,,,,,,,,,,,,,,,,,,,,,,,,,,,,,,,,,,,,,
ходи́ть,ходих+,to walk; to go,НСВ,6.1,1,6,,,,,,,,,переводи́ть,,,,,оде́ться,вы́глядеть,,,,,,,,,,,,,,,,,,,,,,,,,,,,,,,,,,,,,,,,,,,,,,,,,,,,,,
е́здить,е́зди+,to go non-directional by vehicle,НСВ,6.1,1,6,,,,,,,,,перевести́,,,,,выбира́ть,отводи́ть,,,,,,,,,,,,,,,,,,,,,,,,,,,,,,,,,,,,,,,,,,,,,,,,,,,,,,
повторя́ть,по–вторяи́+,to repeat,СВ,6.1,1,6,,повторя́ть,,,,,,,уви́деть,,,,,вы́брать,относи́ть,,,,,,,,,,,,,,,,,,,,,,,,,,,,,,,,,,,,,,,,,,,,,,,,,,,,,,
посмотре́ть,по–смотрех+,to watch; to look,СВ,6.1,1,6,,смотре́ть,,,,,,,записа́ть,,,,,быва́ть,перевози́ть,,,,,,,,,,,,,,,,,,,,,,,,,,,,,,,,,,,,,,,,,,,,,,,,,,,,,,
люби́ть,любих+,to love,НСВ,6.1,1,6,полюби́ть,,,,,,,,запи́сывать,,,,,носи́ть,доноси́ть,,,,,,,,,,,,,,,,,,,,,,,,,,,,,,,,,,,,,,,,,,,,,,,,,,,,,,
гото́вить,гото́ви+,to prepare; to cook,НСВ,6.1,1,6,пригото́вить,,,,,,,,нарисова́ть,,,,,,привози́ть,,,,,,,,,,,,,,,,,,,,,,,,,,,,,,,,,,,,,,,,,,,,,,,,,,,,,,
по́мнить,по́мни+,to remember,НСВ,6.1,1,6,вспо́мнить,,,,,,,,умере́ть,,,,,,отвози́ть,,,,,,,,,,,,,,,,,,,,,,,,,,,,,,,,,,,,,,,,,,,,,,,,,,,,,,
уме́ть,уме́й+,to know how,НСВ,6.1,1,6,суме́ть,,,,,,,,вы́пить,,,,,,отвезти́,,,,,,,,,,,,,,,,,,,,,,,,,,,,,,,,,,,,,,,,,,,,,,,,,,,,,,
шути́ть,шутих+,to joke,НСВ,6.1,1,6,пошути́ть,,,,,,,,чи́стить,,,,,,принести́,,,,,,,,,,,,,,,,,,,,,,,,,,,,,,,,,,,,,,,,,,,,,,,,,,,,,,
есть,е́д+,to eat,НСВ,6.2,2,6,съесть,,,,,,,,помы́ть,,,,,,приноси́ть,,,,,,,,,,,,,,,,,,,,,,,,,,,,,,,,,,,,,,,,,,,,,,,,,,,,,,
чини́ть,чиних+,to fix,НСВ,6.2,2,6,почини́ть,,,,,,,,почи́стить,,,,,,спасти́,,,,,,,,,,,,,,,,,,,,,,,,,,,,,,,,,,,,,,,,,,,,,,,,,,,,,,
съесть,съ–е́д+,to eat up,СВ,6.2,2,6,,есть,х,,,,,,принима́ть,,,,,,улете́ть,,,,,,,,,,,,,,,,,,,,,,,,,,,,,,,,,,,,,,,,,,,,,,,,,,,,,,
почини́ть,по–чиних+,to fix,СВ,6.2,2,6,,чини́ть,,,,,,,приня́ть,,,,,,спаса́ть,,,,,,,,,,,,,,,,,,,,,,,,,,,,,,,,,,,,,,,,,,,,,,,,,,,,,,
пригото́вить,при–гото́ви+,to prepare; to cook,СВ,6.2,2,6,,гото́вить,,,,,,,поза́втракать,,,,,,улета́ть,,,,,,,,,,,,,,,,,,,,,,,,,,,,,,,,,,,,,,,,,,,,,,,,,,,,,,
прочита́ть,про–чита́й+,to read,СВ,6.2,2,6,,чита́ть,,,,,,,пообе́дать,,,,,,прилете́ть,,,,,,,,,,,,,,,,,,,,,,,,,,,,,,,,,,,,,,,,,,,,,,,,,,,,,,
написа́ть,на–писа+,to write,СВ,6.2,2,6,,писа́ть,,,,,,,поу́жинать,,,,,,прилета́ть,,,,,,,,,,,,,,,,,,,,,,,,,,,,,,,,,,,,,,,,,,,,,,,,,,,,,,
сде́лать,с–де́лай+,to do; to make,СВ,6.2,2,6,,де́лать,,,,,,,поня́ть,,,,,,забы́ть,,,,,,,,,,,,,,,,,,,,,,,,,,,,,,,,,,,,,,,,,,,,,,,,,,,,,,
стро́ить,стро́и+,to build,НСВ,6.2,2,6,постро́ить,,,,,,,,за́втракать,,,,,,,,,,,,,,,,,,,,,,,,,,,,,,,,,,,,,,,,,,,,,,,,,,,,,,,,,,,,
постро́ить,по–стро́и+,to build,СВ,6.2,2,6,,стро́ить,,,,,,,обе́дать,,,,,,,,,,,,,,,,,,,,,,,,,,,,,,,,,,,,,,,,,,,,,,,,,,,,,,,,,,,,
бить,б[ь][и́]й+,to beat; to strike,НСВ,6.2,2,6,разби́ть,,,,,,,,у́жинать,,,,,,,,,,,,,,,,,,,,,,,,,,,,,,,,,,,,,,,,,,,,,,,,,,,,,,,,,,,,
разби́ть, раз–б[ь][и́]й+,to break,СВ,6.2,2,6,,бить,,,,,,,открыва́ть,,,,,,,,,,,,,,,,,,,,,,,,,,,,,,,,,,,,,,,,,,,,,,,,,,,,,,,,,,,,
реша́ть,реша́й+,to solve; to work on; to decide,НСВ,6.2,2,6,реши́ть,,,,,,,,откры́ть,,,,,,,,,,,,,,,,,,,,,,,,,,,,,,,,,,,,,,,,,,,,,,,,,,,,,,,,,,,,
реши́ть,реши́+,to solve; to decide,СВ,6.2,2,6,,реша́ть,,,,,,,закрыва́ть,,,,,,,,,,,,,,,,,,,,,,,,,,,,,,,,,,,,,,,,,,,,,,,,,,,,,,,,,,,,
хоте́ть,хотех+,to want,НСВ,6.2,2,6,захоте́ть,,х,,,,,,закры́ть,,,,,,,,,,,,,,,,,,,,,,,,,,,,,,,,,,,,,,,,,,,,,,,,,,,,,,,,,,,,
учи́ть,учих+,to learn; to memorize,НСВ,6.2,2,6,вы́учить,,,,,,,,мыть,,,,,,,,,,,,,,,,,,,,,,,,,,,,,,,,,,,,,,,,,,,,,,,,,,,,,,,,,,,,
вы́учить,вы́–учи+,to learn; to memorize,СВ,6.2,2,6,,учи́ть,,,,,,,попро́бовать,,,,,,,,,,,,,,,,,,,,,,,,,,,,,,,,,,,,,,,,,,,,,,,,,,,,,,,,,,,,
переводи́ть,пере–водих+,to translate,НСВ,6.2,2,6,перевести́,,,,,,,,спроси́ть,,,,,,,,,,,,,,,,,,,,,,,,,,,,,,,,,,,,,,,,,,,,,,,,,,,,,,,,,,,,
перевести́,пере–вёд+,to translate,СВ,6.2,2,6,,переводи́ть,,,,,,,спра́шивать,,,,,,,,,,,,,,,,,,,,,,,,,,,,,,,,,,,,,,,,,,,,,,,,,,,,,,,,,,,,
уви́деть,у–ви́де+,to see,СВ,6.2,2,6,,ви́деть,,,,,,,лежа́ть,,,,,,,,,,,,,,,,,,,,,,,,,,,,,,,,,,,,,,,,,,,,,,,,,,,,,,,,,,,,
записа́ть,за–писа́+,to record; to write down; to note,СВ,6.2,2,6,,запи́сывать,,,,,,,сиде́ть,,,,,,,,,,,,,,,,,,,,,,,,,,,,,,,,,,,,,,,,,,,,,,,,,,,,,,,,,,,,
запи́сывать,за–пи́сывай+,to record; to write down; to note,НСВ,6.2,2,6,записа́ть,,,,,,,,стоя́ть,,,,,,,,,,,,,,,,,,,,,,,,,,,,,,,,,,,,,,,,,,,,,,,,,,,,,,,,,,,,
нарисова́ть,на–рисова́+,to draw,СВ,6.2,2,6,,рисова́ть,,,,,,,висе́ть,,,,,,,,,,,,,,,,,,,,,,,,,,,,,,,,,,,,,,,,,,,,,,,,,,,,,,,,,,,,
умере́ть,ух–м[е]р[е́́]+,to die,СВ,6.3,3,6,,умира́ть,,,,,,,сказа́ть,,,,,,,,,,,,,,,,,,,,,,,,,,,,,,,,,,,,,,,,,,,,,,,,,,,,,,,,,,,,
вы́пить,вы́–п[ь][и]й+,to drink,СВ,6.3,3,6,,пить,,,,,,,поста́вить,,,,,,,,,,,,,,,,,,,,,,,,,,,,,,,,,,,,,,,,,,,,,,,,,,,,,,,,,,,,
чи́стить,чи́сти+,to clean; to brush teeth,НСВ,6.3,3,6,почи́стить,,,,,,,,класть,,,,,,,,,,,,,,,,,,,,,,,,,,,,,,,,,,,,,,,,,,,,,,,,,,,,,,,,,,,,
помы́ть,по–м[ы́][о́]й+,wash,СВ,6.3,3,6,,мыть,,,,,,,положи́ть,,,,,,,,,,,,,,,,,,,,,,,,,,,,,,,,,,,,,,,,,,,,,,,,,,,,,,,,,,,,
почи́стить,по–чи́сти+,to clean; to brush teeth,СВ,6.3,3,6,,чи́стить,,,,,,,взять,,,,,,,,,,,,,,,,,,,,,,,,,,,,,,,,,,,,,,,,,,,,,,,,,,,,,,,,,,,,
принима́ть,при–нима́й+,to take shower  bath; to accept,НСВ,6.3,3,6,приня́ть,,,,,,,,ста́вить,,,,,,,,,,,,,,,,,,,,,,,,,,,,,,,,,,,,,,,,,,,,,,,,,,,,,,,,,,,,
приня́ть,прих–н[их][м]+,to take shower  bath; to accept,СВ,6.3,3,6,,принима́ть,,,,,,,брать,,,,,,,,,,,,,,,,,,,,,,,,,,,,,,,,,,,,,,,,,,,,,,,,,,,,,,,,,,,,
поза́втракать,по–за́втракай+,to eat breakfast,СВ,6.3,3,6,,за́втракать,,,,,,,попроси́ть,,,,,,,,,,,,,,,,,,,,,,,,,,,,,,,,,,,,,,,,,,,,,,,,,,,,,,,,,,,,
пообе́дать,по–об–еда́й+,to eat lunch; to eat dinner,СВ,6.3,3,6,,обе́дать,,,,,,,проси́ть,,,,,,,,,,,,,,,,,,,,,,,,,,,,,,,,,,,,,,,,,,,,,,,,,,,,,,,,,,,,
поу́жинать,по–у́жинай+,to eat supper; to eat dinner the evening meal,СВ,6.3,3,6,,у́жинать,,,,,,,рассказа́ть,,,,,,,,,,,,,,,,,,,,,,,,,,,,,,,,,,,,,,,,,,,,,,,,,,,,,,,,,,,,
поня́ть,пох–[н][й][м]+,to understand,СВ,6.3,3,6,,понима́ть,,,,,,,расска́зывать,,,,,,,,,,,,,,,,,,,,,,,,,,,,,,,,,,,,,,,,,,,,,,,,,,,,,,,,,,,,
за́втракать,за́втракай+,to eat breakfast,НСВ,6.3,3,6,поза́втркать,,,,,,,,забыва́ть,,,,,,,,,,,,,,,,,,,,,,,,,,,,,,,,,,,,,,,,,,,,,,,,,,,,,,,,,,,,
обе́дать,об–е́да́й+,to eat lunch; to eat dinner,НСВ,6.3,3,6,пообе́дать,,,,,,,,накрыва́ть,,,,,,,,,,,,,,,,,,,,,,,,,,,,,,,,,,,,,,,,,,,,,,,,,,,,,,,,,,,,
у́жинать,у́жинай+,to eat supper; to eat dinner the evening meal,НСВ,6.3,3,6,поу́жинать,,,,,,,,накры́ть,,,,,,,,,,,,,,,,,,,,,,,,,,,,,,,,,,,,,,,,,,,,,,,,,,,,,,,,,,,,
открыва́ть,от–крыва́й+,to open,НСВ,6.3,3,6,откры́ть,,,,,,,,убира́ть,,,,,,,,,,,,,,,,,,,,,,,,,,,,,,,,,,,,,,,,,,,,,,,,,,,,,,,,,,,,
откры́ть,от–кр[ы́][о́́]й+,to open,СВ,6.3,3,6,,открыва́ть,,,,,,,убра́ть,,,,,,,,,,,,,,,,,,,,,,,,,,,,,,,,,,,,,,,,,,,,,,,,,,,,,,,,,,,,
закрыва́ть,за–крыва́й+,to close,НСВ,6.3,3,6,закры́ть,,,,,,,,включа́ть,,,,,,,,,,,,,,,,,,,,,,,,,,,,,,,,,,,,,,,,,,,,,,,,,,,,,,,,,,,,
закры́ть,за–кр[ы́][а́]й+,to close,СВ,6.3,3,6,,закрыва́ть,,,,,,,включи́ть,,,,,,,,,,,,,,,,,,,,,,,,,,,,,,,,,,,,,,,,,,,,,,,,,,,,,,,,,,,,
мыть,м[ы́][о́]й+,to wash,НСВ,6.3,3,6,помы́ть,,,,,,,,выключа́ть,,,,,,,,,,,,,,,,,,,,,,,,,,,,,,,,,,,,,,,,,,,,,,,,,,,,,,,,,,,,
попро́бовать,по–про́бова+,to try,СВ,6.3,3,6,,про́бовать,,,,,,,вы́ключить,,,,,,,,,,,,,,,,,,,,,,,,,,,,,,,,,,,,,,,,,,,,,,,,,,,,,,,,,,,,
спроси́ть,с–просих+,to ask,СВ,6.3,3,6,,спра́шивать,,,,,,,,,,,,,,,,,,,,,,,,,,,,,,,,,,,,,,,,,,,,,,,,,,,,,,,,,,,,,,,,,,,
спра́шивать,с–пра́шивай+,to ask,НСВ,6.3,3,6,спроси́ть,,,,,,,,,,,,,,,,,,,,,,,,,,,,,,,,,,,,,,,,,,,,,,,,,,,,,,,,,,,,,,,,,,,,
лежа́ть,лежа́+,to lie,НСВ,6.4,4,6,,,,,,,,,,,,,,,,,,,,,,,,,,,,,,,,,,,,,,,,,,,,,,,,,,,,,,,,,,,,,,,,,,,,,
сиде́ть,сиде́+,to sit,НСВ,6.4,4,6,,,,,,,,,,,,,,,,,,,,,,,,,,,,,,,,,,,,,,,,,,,,,,,,,,,,,,,,,,,,,,,,,,,,,
стоя́ть,стоя́+,to stand,НСВ,6.4,4,6,,,,,,,,,,,,,,,,,,,,,,,,,,,,,,,,,,,,,,,,,,,,,,,,,,,,,,,,,,,,,,,,,,,,,
висе́ть,висе́+,to hang; to be in a hanging position,НСВ,6.4,4,6,,,,,,,,,,,,,,,,,,,,,,,,,,,,,,,,,,,,,,,,,,,,,,,,,,,,,,,,,,,,,,,,,,,,,
сказа́ть,с–казах+,to say,СВ,6.5,5,6,,говори́ть,,,,,,,,,,,,,,,,,,,,,,,,,,,,,,,,,,,,,,,,,,,,,,,,,,,,,,,,,,,,,,,,,,,
поста́вить,по–ста́ви+,to put; to stand,СВ,6.5,5,6,,ста́вить,,,,,,,,,,,,,,,,,,,,,,,,,,,,,,,,,,,,,,,,,,,,,,,,,,,,,,,,,,,,,,,,,,,
класть,кла́д+,to put; to lay,НСВ,6.5,5,6,положи́ть,,,,,,,,,,,,,,,,,,,,,,,,,,,,,,,,,,,,,,,,,,,,,,,,,,,,,,,,,,,,,,,,,,,,
положи́ть,по–ложих+,to put; to lay,СВ,6.5,5,6,,класть,,,,,,,,,,,,,,,,,,,,,,,,,,,,,,,,,,,,,,,,,,,,,,,,,,,,,,,,,,,,,,,,,,,
взять,в[о]з-[ќ][ьм]+,to take; to borrow,СВ,6.5,5,6,,брать,,,,,,,,,,,,,,,,,,,,,,,,,,,,,,,,,,,,,,,,,,,,,,,,,,,,,,,,,,,,,,,,,,,
ста́вить,ста́ви+,to put; to stand,НСВ,6.5,5,6,поста́вить,,,,,,,,,,,,,,,,,,,,,,,,,,,,,,,,,,,,,,,,,,,,,,,,,,,,,,,,,,,,,,,,,,,,
брать,б[е]р[ах]+,to take; to borrow,НСВ,6.5,5,6,взять,,,,,,,,,,,,,,,,,,,,,,,,,,,,,,,,,,,,,,,,,,,,,,,,,,,,,,,,,,,,,,,,,,,,
попроси́ть,по–просих+,to ask; to request,СВ,6.5,5,6,,проси́ть,,,,,,,,,,,,,,,,,,,,,,,,,,,,,,,,,,,,,,,,,,,,,,,,,,,,,,,,,,,,,,,,,,,
проси́ть,просих+,to ask; to request,НСВ,6.5,5,6,попроси́ть,,,,,,,,,,,,,,,,,,,,,,,,,,,,,,,,,,,,,,,,,,,,,,,,,,,,,,,,,,,,,,,,,,,,
рассказа́ть,рас–с–казах+,to tell,СВ,6.5,5,6,,расска́зывать,,,,,,,,,,,,,,,,,,,,,,,,,,,,,,,,,,,,,,,,,,,,,,,,,,,,,,,,,,,,,,,,,,,
расска́зывать,рас–с–ка́зывай+,to tell,НСВ,6.5,5,6,рассказа́ть,,,,,,,,,,,,,,,,,,,,,,,,,,,,,,,,,,,,,,,,,,,,,,,,,,,,,,,,,,,,,,,,,,,,
забыва́ть,за–быва́й+,to forget,НСВ,6.5,5,6,забы́ть,,,,,,,,,,,,,,,,,,,,,,,,,,,,,,,,,,,,,,,,,,,,,,,,,,,,,,,,,,,,,,,,,,,,
накрыва́ть,на–крыва́й+,to set the table,НСВ,6.5,5,6,накры́ть,,,,,,,,,,,,,,,,,,,,,,,,,,,,,,,,,,,,,,,,,,,,,,,,,,,,,,,,,,,,,,,,,,,,
накры́ть,на–кр[ы́][о́]й+,to set the table,СВ,6.5,5,6,,накрыва́ть,,,,,,,,,,,,,,,,,,,,,,,,,,,,,,,,,,,,,,,,,,,,,,,,,,,,,,,,,,,,,,,,,,,
убира́ть,у–бира́й+,to clean up; to clear,НСВ,6.5,5,6,убра́ть,,,,,,,,,,,,,,,,,,,,,,,,,,,,,,,,,,,,,,,,,,,,,,,,,,,,,,,,,,,,,,,,,,,,
убра́ть,у–б[е]р[ах]+,to clean up; to clear,СВ,6.5,5,6,,убира́ть,,,,,,,,,,,,,,,,,,,,,,,,,,,,,,,,,,,,,,,,,,,,,,,,,,,,,,,,,,,,,,,,,,,
включа́ть,в–ключа́й+,to turn on,НСВ,6.5,5,6,включи́ть,,,,,,,,,,,,,,,,,,,,,,,,,,,,,,,,,,,,,,,,,,,,,,,,,,,,,,,,,,,,,,,,,,,,
включи́ть,в–ключи́+,to turn on,СВ,6.5,5,6,,включа́ть,,,,,,,,,,,,,,,,,,,,,,,,,,,,,,,,,,,,,,,,,,,,,,,,,,,,,,,,,,,,,,,,,,,
выключа́ть,вы–ключа́й+,to turn off,НСВ,6.5,5,6,вы́ключить,,,,,,,,,,,,,,,,,,,,,,,,,,,,,,,,,,,,,,,,,,,,,,,,,,,,,,,,,,,,,,,,,,,,
вы́ключить,вы́–ключи+,to turn off,СВ,6.5,5,6,,выключа́ть,,,,,,,,,,,,,,,,,,,,,,,,,,,,,,,,,,,,,,,,,,,,,,,,,,,,,,,,,,,,,,,,,,,
зада́ть,зах–дай+,to assign; to ask a question,СВ,7.1,1,7,,задава́ть,х,,,,,,,,,,,,,,,,,,,,,,,,,,,,,,,,,,,,,,,,,,,,,,,,,,,,,,,,,,,,,,,,,,
дать,дахй+,to give; to lend,СВ,7.1,1,7,,дава́ть,x,,,,,,,,,,,,,,,,,,,,,,,,,,,,,,,,,,,,,,,,,,,,,,,,,,,,,,,,,,,,,,,,,,
дава́ть,дава́й+,to give; to lend,НСВ,7.1,1,7,дать,,,,,,,,,,,,,,,,,,,,,,,,,,,,,,,,,,,,,,,,,,,,,,,,,,,,,,,,,,,,,,,,,,,,
передава́ть,пере–дава́й+,to pass; to convey,НСВ,7.1,1,7,переда́ть,,,,,,,,,,,,,,,,,,,,,,,,,,,,,,,,,,,,,,,,,,,,,,,,,,,,,,,,,,,,,,,,,,,,
переда́ть,пехре–дай+,to pass; to convey,СВ,7.1,1,7,,передава́ть,х,,,,,,,,,,,,,,,,,,,,,,,,,,,,,,,,,,,,,,,,,,,,,,,,,,,,,,,,,,,,,,,,,,
задава́ть,за–дава́й+,to assign; to ask a question,НСВ,7.1,1,7,зада́ть,,,,,,,,,,,,,,,,,,,,,,,,,,,,,,,,,,,,,,,,,,,,,,,,,,,,,,,,,,,,,,,,,,,,
узнава́ть,у–знава́й+,to recognize; to find out,НСВ,7.1,1,7,узна́ть,,,,,,,,,,,,,,,,,,,,,,,,,,,,,,,,,,,,,,,,,,,,,,,,,,,,,,,,,,,,,,,,,,,,
продава́ть,про–дава́й+,to sell,НСВ,7.1,1,7,прода́ть,,,,,,,,,,,,,,,,,,,,,,,,,,,,,,,,,,,,,,,,,,,,,,,,,,,,,,,,,,,,,,,,,,,,
прода́ть,прох–дай+,to sell,СВ,7.1,1,7,,продава́ть,х,,,,,,,,,,,,,,,,,,,,,,,,,,,,,,,,,,,,,,,,,,,,,,,,,,,,,,,,,,,,,,,,,,
сдава́ть,с–дава́й+,to rent out; to hand in,НСВ,7.1,1,7,сдать,,,,,,,,,,,,,,,,,,,,,,,,,,,,,,,,,,,,,,,,,,,,,,,,,,,,,,,,,,,,,,,,,,,,
сдать,с–дахй+,to rent out; to hand in,СВ,7.1,1,7,,сдава́ть,х,,,,,,,,,,,,,,,,,,,,,,,,,,,,,,,,,,,,,,,,,,,,,,,,,,,,,,,,,,,,,,,,,,
снима́ть,с–нима́й+,to rent; to remove an article of clothing,НСВ,7.1,1,7,снять,,,,,,,,,,,,,,,,,,,,,,,,,,,,,,,,,,,,,,,,,,,,,,,,,,,,,,,,,,,,,,,,,,,,
снять,с–н[их́][м]+,to rent; to remove an article of clothing,СВ,7.1,1,7,,снима́ть,,,,,,,,,,,,,,,,,,,,,,,,,,,,,,,,,,,,,,,,,,,,,,,,,,,,,,,,,,,,,,,,,,,
узна́ть,у–зна́й+,to recognize; to find out,СВ,7.1,1,7,,узнава́ть,,,,,,,,,,,,,,,,,,,,,,,,,,,,,,,,,,,,,,,,,,,,,,,,,,,,,,,,,,,,,,,,,,,
подари́ть,по–дарих+,to give; to gift,СВ,7.2,2,7,,дари́ть,,,,,,,,,,,,,,,,,,,,,,,,,,,,,,,,,,,,,,,,,,,,,,,,,,,,,,,,,,,,,,,,,,,
купи́ть,купих+,to buy,СВ,7.2,2,7,,покупа́ть,,,,,,,,,,,,,,,,,,,,,,,,,,,,,,,,,,,,,,,,,,,,,,,,,,,,,,,,,,,,,,,,,,,
дари́ть,дарих+,to give; to gift,НСВ,7.2,2,7,подари́ть,,,,,,,,,,,,,,,,,,,,,,,,,,,,,,,,,,,,,,,,,,,,,,,,,,,,,,,,,,,,,,,,,,,,
покупа́ть,по–купа́й+,to buy,НСВ,7.2,2,7,купи́ть,,,,,,,,,,,,,,,,,,,,,,,,,,,,,,,,,,,,,,,,,,,,,,,,,,,,,,,,,,,,,,,,,,,,
приглаша́ть,при–глаша́й+,to invite,НСВ,7.2,2,7,пригласи́ть,,,,,,,,,,,,,,,,,,,,,,,,,,,,,,,,,,,,,,,,,,,,,,,,,,,,,,,,,,,,,,,,,,,,
пригласи́ть,при–гласи́+,to invite,СВ,7.2,2,7,,приглаша́ть,,,,,,,,,,,,,,,,,,,,,,,,,,,,,,,,,,,,,,,,,,,,,,,,,,,,,,,,,,,,,,,,,,,
получи́ть,по–лучих+,to receive,СВ,7.2,2,7,,получа́ть,,,,,,,,,,,,,,,,,,,,,,,,,,,,,,,,,,,,,,,,,,,,,,,,,,,,,,,,,,,,,,,,,,,
показа́ть,по–казах+,to show,СВ,7.3,3,7,,пока́зывать,,,,,,,,,,,,,,,,,,,,,,,,,,,,,,,,,,,,,,,,,,,,,,,,,,,,,,,,,,,,,,,,,,,
пока́зывать,по–ка́зывай+,to show,НСВ,7.3,3,7,показа́ть,,,,,,,,,,,,,,,,,,,,,,,,,,,,,,,,,,,,,,,,,,,,,,,,,,,,,,,,,,,,,,,,,,,,
укра́сть,у–кра́д+,to steal,СВ,7.3,3,7,,красть,,,,,,,,,,,,,,,,,,,,,,,,,,,,,,,,,,,,,,,,,,,,,,,,,,,,,,,,,,,,,,,,,,,
красть,кра́д+,to steal,НСВ,7.3,3,7,укра́сть,,,,,,,,,,,,,,,,,,,,,,,,,,,,,,,,,,,,,,,,,,,,,,,,,,,,,,,,,,,,,,,,,,,,
позвони́ть,по–звони́+,to phone; to call,СВ,7.5,5,7,,звони́ть,,,,,,,,,,,,,,,,,,,,,,,,,,,,,,,,,,,,,,,,,,,,,,,,,,,,,,,,,,,,,,,,,,,
звони́ть,звони́+,to phone; to call,НСВ,7.5,5,7,позвони́ть,,,,,,,,,,,,,,,,,,,,,,,,,,,,,,,,,,,,,,,,,,,,,,,,,,,,,,,,,,,,,,,,,,,,
разгова́ривать,раз–гова́ривай+,to talk; to converse,НСВ,7.5,5,7,,,,,,,,,,,,,,,,,,,,,,,,,,,,,,,,,,,,,,,,,,,,,,,,,,,,,,,,,,,,,,,,,,,,,
поговори́ть,по–говори́+,to talk; to speak,СВ,7.5,5,7,,говори́ть,,,,,,,,,,,,,,,,,,,,,,,,,,,,,,,,,,,,,,,,,,,,,,,,,,,,,,,,,,,,,,,,,,,
перезвони́ть,пере–звони́+,to call back,СВ,7.5,5,7,,перезва́нивать,,,,,,,,,,,,,,,,,,,,,,,,,,,,,,,,,,,,,,,,,,,,,,,,,,,,,,,,,,,,,,,,,,,
занима́ться,за–нима́й+ся,to study; to be engaged in; to practice an instrument,НСВ,8.1,1,8,,,,,,,,,,,,,,,,,,,,,,,,,,,,,,,,,,,,,,,,,,,,,,,,,,,,,,,,,,,,,,,,,,,,,
собира́ться,c[о]–бира́й+ся,to get ready; to plan; to be about to,НСВ,8.1,1,8,,,,,,,,,,,,,,,,,,,,,,,,,,,,,,,,,,,,,,,,,,,,,,,,,,,,,,,,,,,,,,,,,,,,,
преподава́ть,пре–по–дава́й+,to teach,НСВ,8.1,1,8,,,,,,,,,,,,,,,,,,,,,,,,,,,,,,,,,,,,,,,,,,,,,,,,,,,,,,,,,,,,,,,,,,,,,
интересова́ться,интересова́+ся,to be interested in,НСВ,8.1,1,8,заинтересова́ться,,,,,,,,,,,,,,,,,,,,,,,,,,,,,,,,,,,,,,,,,,,,,,,,,,,,,,,,,,,,,,,,,,,,
ката́ться,ката́й+ся,to ride,НСВ,8.2,2,8,,,,,,,,,,,,,,,,,,,,,,,,,,,,,,,,,,,,,,,,,,,,,,,,,,,,,,,,,,,,,,,,,,,,,
научи́ться,на–учих+ся,to learn; to acquire a skill,СВ,8.2,2,8,,учи́ться,,,,,,,,,,,,,,,,,,,,,,,,,,,,,,,,,,,,,,,,,,,,,,,,,,,,,,,,,,,,,,,,,,,
купа́ться,купа́й+ся,to go swimming,НСВ,8.2,2,8,,,,,,,,,,,,,,,,,,,,,,,,,,,,,,,,,,,,,,,,,,,,,,,,,,,,,,,,,,,,,,,,,,,,,
выигра́ть,вы́–играй+,to win,СВ,8.2,2,8,,,,,,,,,,,,,,,,,,,,,,,,,,,,,,,,,,,,,,,,,,,,,,,,,,,,,,,,,,,,,,,,,,,,,
выи́грывать,вы–и́грывай+,to win,НСВ,8.2,2,8,выи́грывать,,,,,,,,,,,,,,,,,,,,,,,,,,,,,,,,,,,,,,,,,,,,,,,,,,,,,,,,,,,,,,,,,,,,
проигра́ть,пр́–игра́й+,to lose,СВ,8.2,2,8,вы́играть,,,,,,,,,,,,,,,,,,,,,,,,,,,,,,,,,,,,,,,,,,,,,,,,,,,,,,,,,,,,,,,,,,,,
прои́грывать,про–и́грывай+,to lose,НСВ,8.2,2,8,,,,,,,,,,,,,,,,,,,,,,,,,,,,,,,,,,,,,,,,,,,,,,,,,,,,,,,,,,,,,,,,,,,,,
репети́ровать,репети́рова+,to rehearse; to practice,НСВ,8.2,2,8,,,,,,,,,,,,,,,,,,,,,,,,,,,,,,,,,,,,,,,,,,,,,,,,,,,,,,,,,,,,,,,,,,,,,
бе́гать,бе́гай+,to run,НСВ,8.2,2,8,,,,,,,,,,,,,,,,,,,,,,,,,,,,,,,,,,,,,,,,,,,,,,,,,,,,,,,,,,,,,,,,,,,,,
слы́шать,слы́ша+,to hear,НСВ,8.3,3,8,услы́шать,,,,,,,,,,,,,,,,,,,,,,,,,,,,,,,,,,,,,,,,,,,,,,,,,,,,,,,,,,,,,,,,,,,,
молча́ть,молча́+,to be quiet,НСВ,8.3,3,8,замолча́ть,,,,,,,,,,,,,,,,,,,,,,,,,,,,,,,,,,,,,,,,,,,,,,,,,,,,,,,,,,,,,,,,,,,,
фотографи́ровать,фотографи́рова+,to photograph,НСВ,8.3,3,8,,,,,,,,,,,,,,,,,,,,,,,,,,,,,,,,,,,,,,,,,,,,,,,,,,,,,,,,,,,,,,,,,,,,,
случи́ться,случи́+ся,to happen,СВ,8.3,3,8,,случа́ться,,,,,,,,,,,,,,,,,,,,,,,,,,,,,,,,,,,,,,,,,,,,,,,,,,,,,,,,,,,,,,,,,,,
крича́ть,крича́+,to shout,НСВ,8.3,3,8,кри́кнуть,,,,,,,,,,,,,,,,,,,,,,,,,,,,,,,,,,,,,,,,,,,,,,,,,,,,,,,,,,,,,,,,,,,,
стать,ста́н+,to become,СВ,8.5,5,8,,станови́ться,,,,,,,,,,,,,,,,,,,,,,,,,,,,,,,,,,,,,,,,,,,,,,,,,,,,,,,,,,,,,,,,,,,
наде́яться,на–де́й[а]+ся,to hope,НСВ,8.5,5,8,,,,,,,,,,,,,,,,,,,,,,,,,,,,,,,,,,,,,,,,,,,,,,,,,,,,,,,,,,,,,,,,,,,,,
име́ть,име́й+,to have,НСВ,9.1,1,9,,,,,,,,,,,,,,,,,,,,,,,,,,,,,,,,,,,,,,,,,,,,,,,,,,,,,,,,,,,,,,,,,,,,,
начина́ться,на–чина́й+ся,to begin,НСВ,9.2,2,9,нача́ться,,,,,,,,,,,,,,,,,,,,,,,,,,,,,,,,,,,,,,,,,,,,,,,,,,,,,,,,,,,,,,,,,,,,
конча́ться,конча́й+ся,to end,НСВ,9.2,2,9,ко́нчиться,,,,,,,,,,,,,,,,,,,,,,,,,,,,,,,,,,,,,,,,,,,,,,,,,,,,,,,,,,,,,,,,,,,,
входи́ть,в–ходих+,to enter,НСВ,9.3,3,9,войти́,,,,,,,,,,,,,,,,,,,,,,,,,,,,,,,,,,,,,,,,,,,,,,,,,,,,,,,,,,,,,,,,,,,,
нали́ть,на–л[ь][их]й+,to pour,СВ,9.3,3,9,,налива́ть,,,,,,,,,,,,,,,,,,,,,,,,,,,,,,,,,,,,,,,,,,,,,,,,,,,,,,,,,,,,,,,,,,,
прийти́,при–[й]д+,to arrive; to come,СВ,9.3,3,9,,приходи́ть,,,,,,,,,,,,,,,,,,,,,,,,,,,,,,,,,,,,,,,,,,,,,,,,,,,,,,,,,,,,,,,,,,,
приходи́ть,при–ходих+,to arrive; to come,НСВ,9.3,3,9,прийти́,,,,,,,,,,,,,,,,,,,,,,,,,,,,,,,,,,,,,,,,,,,,,,,,,,,,,,,,,,,,,,,,,,,,
налива́ть,на–лива́й+,to pour,НСВ,9.3,3,9,нали́ть,,,,,,,,,,,,,,,,,,,,,,,,,,,,,,,,,,,,,,,,,,,,,,,,,,,,,,,,,,,,,,,,,,,,
заходи́ть,за–ходих+,to come in; to drop by,НСВ,9.3,3,9,зайти́,,,,,,,,,,,,,,,,,,,,,,,,,,,,,,,,,,,,,,,,,,,,,,,,,,,,,,,,,,,,,,,,,,,,
ждать,жд[ах]+,to wait,НСВ,9.3,3,9,подожда́ть,,,,,,,,,,,,,,,,,,,,,,,,,,,,,,,,,,,,,,,,,,,,,,,,,,,,,,,,,,,,,,,,,,,,
помо́чь,по–мохг+,to help,СВ,9.4,4,9,,помога́ть,,,,,,,,,,,,,,,,,,,,,,,,,,,,,,,,,,,,,,,,,,,,,,,,,,,,,,,,,,,,,,,,,,,
помога́ть,по–мога́й+,to help,НСВ,9.4,4,9,помо́чь,,,,,,,,,,,,,,,,,,,,,,,,,,,,,,,,,,,,,,,,,,,,,,,,,,,,,,,,,,,,,,,,,,,,
мочь,мохг+,to be able to,НСВ,9.4,4,9,смочь,,,,,,,,,,,,,,,,,,,,,,,,,,,,,,,,,,,,,,,,,,,,,,,,,,,,,,,,,,,,,,,,,,,,
получа́ть,по–луча́й+,to receive,НСВ,9.4,4,9,получи́ть,,,,,,,,,,,,,,,,,,,,,,,,,,,,,,,,,,,,,,,,,,,,,,,,,,,,,,,,,,,,,,,,,,,,
отвеча́ть,от–веча́й+,to answer,НСВ,9.4,4,9,отве́тить,,,,,,,,,,,,,,,,,,,,,,,,,,,,,,,,,,,,,,,,,,,,,,,,,,,,,,,,,,,,,,,,,,,,
отве́тить,от–ве́ти+,to answer,СВ,9.4,4,9,,отвеча́ть,,,,,,,,,,,,,,,,,,,,,,,,,,,,,,,,,,,,,,,,,,,,,,,,,,,,,,,,,,,,,,,,,,,
посыла́ть,по–сыла́й+,to send,НСВ,9.4,4,9,посла́ть,,,,,,,,,,,,,,,,,,,,,,,,,,,,,,,,,,,,,,,,,,,,,,,,,,,,,,,,,,,,,,,,,,,,
посла́ть,по–слах+,to send,СВ,9.4,4,9,,посыла́ть,,,,,,,,,,,,,,,,,,,,,,,,,,,,,,,,,,,,,,,,,,,,,,,,,,,,,,,,,,,,,,,,,,,
смочь,смохг+,to be able,СВ,9.4,4,9,,мочь,,,,,,,,,,,,,,,,,,,,,,,,,,,,,,,,,,,,,,,,,,,,,,,,,,,,,,,,,,,,,,,,,,,
печь,пёк+,to bake,НСВ,9.4,4,9,испе́чь,,,,,,,,,,,,,,,,,,,,,,,,,,,,,,,,,,,,,,,,,,,,,,,,,,,,,,,,,,,,,,,,,,,,
испе́чь,ис–пёк+,to bake,СВ,9.4,4,9,,печь,,,,,,,,,,,,,,,,,,,,,,,,,,,,,,,,,,,,,,,,,,,,,,,,,,,,,,,,,,,,,,,,,,,
идти́,ид+,to go 1-way on foot,НСВ,10.1,1,10,пойти́,,,,,,,,,,,,,,,,,,,,,,,,,,,,,,,,,,,,,,,,,,,,,,,,,,,,,,,,,,,,,,,,,,,,
тренирова́ться,тренирова́+ся,to train; to exercise,НСВ,10.1,1,10,,,,,,,,,,,,,,,,,,,,,,,,,,,,,,,,,,,,,,,,,,,,,,,,,,,,,,,,,,,,,,,,,,,,,
верну́ться,верну́2+ся,to return,СВ,10.2,2,10,,возвраща́ться,,,,,,,,,,,,,,,,,,,,,,,,,,,,,,,,,,,,,,,,,,,,,,,,,,,,,,,,,,,,,,,,,,,
бежа́ть,бе[ж/г]а́+,to run 1-way,НСВ,10.2,2,10,побежа́ть,,х,,,,,,,,,,,,,,,,,,,,,,,,,,,,,,,,,,,,,,,,,,,,,,,,,,,,,,,,,,,,,,,,,,
возвраща́ться,воз–враща́й+ся,to return,НСВ,10.2,2,10,верну́ться,,,,,,,,,,,,,,,,,,,,,,,,,,,,,,,,,,,,,,,,,,,,,,,,,,,,,,,,,,,,,,,,,,,,
пойти́,по–йд+,to set out on foot; to go,СВ,10.3,3,10,,идти́,,,,,,,,,,,,,,,,,,,,,,,,,,,,,,,,,,,,,,,,,,,,,,,,,,,,,,,,,,,,,,,,,,,
побежа́ть,по–бе[ж/г]а́+,to run; to set out running,СВ,10.3,3,10,,бежа́ть,х,,,,,,,,,,,,,,,,,,,,,,,,,,,,,,,,,,,,,,,,,,,,,,,,,,,,,,,,,,,,,,,,,,
найти́,на–йд+,to find,СВ,10.4,4,10,,находи́ть,,,,,,,,,,,,,,,,,,,,,,,,,,,,,,,,,,,,,,,,,,,,,,,,,,,,,,,,,,,,,,,,,,,
находи́ть,на–ходих+,to find,НСВ,10.4,4,10,найти́,,,,,,,,,,,,,,,,,,,,,,,,,,,,,,,,,,,,,,,,,,,,,,,,,,,,,,,,,,,,,,,,,,,,
е́хать,е́[х][д][а]+,to go 1-way  by vehicle,НСВ,10.4,4,10,пое́хать,,,,,,,,,,,,,,,,,,,,,,,,,,,,,,,,,,,,,,,,,,,,,,,,,,,,,,,,,,,,,,,,,,,,
пое́хать,по–е́[х][д][а]+,to go; to set out,СВ,10.4,4,10,,е́хать,,,,,,,,,,,,,,,,,,,,,,,,,,,,,,,,,,,,,,,,,,,,,,,,,,,,,,,,,,,,,,,,,,,
потеря́ть,по–теря́й+,to lose,СВ,10.4,4,10,,теря́ть,,,,,,,,,,,,,,,,,,,,,,,,,,,,,,,,,,,,,,,,,,,,,,,,,,,,,,,,,,,,,,,,,,,
теря́ть,теря́й+,to lose,НСВ,10.4,4,10,потеря́ть,,,,,,,,,,,,,,,,,,,,,,,,,,,,,,,,,,,,,,,,,,,,,,,,,,,,,,,,,,,,,,,,,,,,
ве́рить,ве́ри+,to believe,НСВ,10.5,5,10,пове́рить,,,,,,,,,,,,,,,,,,,,,,,,,,,,,,,,,,,,,,,,,,,,,,,,,,,,,,,,,,,,,,,,,,,,
носи́ть,носих+,to carry,НСВ,10.5,5,10,,,,,,,,,,,,,,,,,,,,,,,,,,,,,,,,,,,,,,,,,,,,,,,,,,,,,,,,,,,,,,,,,,,,,
води́ть,водих+,to lead to take on foot,НСВ,10.5,5,10,,,,,,,,,,,,,,,,,,,,,,,,,,,,,,,,,,,,,,,,,,,,,,,,,,,,,,,,,,,,,,,,,,,,,
пове́рить,по–ве́ри+,to believe,СВ,10.5,5,10,,ве́рить,,,,,,,,,,,,,,,,,,,,,,,,,,,,,,,,,,,,,,,,,,,,,,,,,,,,,,,,,,,,,,,,,,,
лета́ть,лета́й+,to fly,НСВ,10.5,5,10,,,,,,,,,,,,,,,,,,,,,,,,,,,,,,,,,,,,,,,,,,,,,,,,,,,,,,,,,,,,,,,,,,,,,
лете́ть,лете́+,to fly 1-way,НСВ,10.5,5,10,полете́ть,,,,,,,,,,,,,,,,,,,,,,,,,,,,,,,,,,,,,,,,,,,,,,,,,,,,,,,,,,,,,,,,,,,,
полете́ть,по–лете́+,to fly; to set out flying,СВ,10.5,5,10,,,,,,,,,,,,,,,,,,,,,,,,,,,,,,,,,,,,,,,,,,,,,,,,,,,,,,,,,,,,,,,,,,,,,
вози́ть,возих+,to transport; to carry by vehicle,НСВ,10.5,5,10,,,,,,,,,,,,,,,,,,,,,,,,,,,,,,,,,,,,,,,,,,,,,,,,,,,,,,,,,,,,,,,,,,,,,
вести́,вёд+,to lead; to take on foot  1-way,НСВ,10.5,5,10,повести́,,,,,,,,,,,,,,,,,,,,,,,,,,,,,,,,,,,,,,,,,,,,,,,,,,,,,,,,,,,,,,,,,,,,
везти́,вёз+,to transport; to carry by vehicle  1-way,НСВ,10.5,5,10,повезти́,,,,,,,,,,,,,,,,,,,,,,,,,,,,,,,,,,,,,,,,,,,,,,,,,,,,,,,,,,,,,,,,,,,,
нести́,нёс+,to carry 1-way,НСВ,10.5,5,10,понести́,,,,,,,,,,,,,,,,,,,,,,,,,,,,,,,,,,,,,,,,,,,,,,,,,,,,,,,,,,,,,,,,,,,,
путеше́ствовать,путе–ше́ствова+,to travel,НСВ,10.6,6,10,,,,,,,,,,,,,,,,,,,,,,,,,,,,,,,,,,,,,,,,,,,,,,,,,,,,,,,,,,,,,,,,,,,,,
поплы́ть,по–плыв+,to start swimming,СВ,10.6,6,10,,плыть,,,,,,,,,,,,,,,,,,,,,,,,,,,,,,,,,,,,,,,,,,,,,,,,,,,,,,,,,,,,,,,,,,,
плыть,плыв+,to swim 1-way,НСВ 1-way,10.6,6,10,,,,,,,,,,,,,,,,,,,,,,,,,,,,,,,,,,,,,,,,,,,,,,,,,,,,,,,,,,,,,,,,,,,,,
пла́вать,пла́вай+,to swim,НСВ non 1-way,10.6,6,10,,,,,,,,,,,,,,,,,,,,,,,,,,,,,,,,,,,,,,,,,,,,,,,,,,,,,,,,,,,,,,,,,,,,,
сходи́ть,с–ходих+,to make a quick trip by foot; to go,СВ,10.7,7,10,,,,,,,,,,,,,,,,,,,,,,,,,,,,,,,,,,,,,,,,,,,,,,,,,,,,,,,,,,,,,,,,,,,,,
съе́здить,съ–е́зди+,to make a quick trip by vehicle; to go,СВ,10.7,7,10,,,,,,,,,,,,,,,,,,,,,,,,,,,,,,,,,,,,,,,,,,,,,,,,,,,,,,,,,,,,,,,,,,,,,
плати́ть,за–платих+,to pay,НСВ,10.7,7,10,заплати́ть,,,,,,,,,,,,,,,,,,,,,,,,,,,,,,,,,,,,,,,,,,,,,,,,,,,,,,,,,,,,,,,,,,,,
заплати́ть,платих+,to pay,СВ,10.7,7,10,,плати́ть,,,,,,,,,,,,,,,,,,,,,,,,,,,,,,,,,,,,,,,,,,,,,,,,,,,,,,,,,,,,,,,,,,,
вы́йти за́муж,вы́–йд+ за́муж,to marry f.,СВ,11.1,1,11,,выходи́ть за́муж,,,,,,,,,,,,,,,,,,,,,,,,,,,,,,,,,,,,,,,,,,,,,,,,,,,,,,,,,,,,,,,,,,,
выходи́ть за́муж,вы–ходих+,to marry f.,НСВ,11.1,1,11,вы́йти за́муж,,,,,,,,,,,,,,,,,,,,,,,,,,,,,,,,,,,,,,,,,,,,,,,,,,,,,,,,,,,,,,,,,,,,
пожени́ться,по–жених+ся,to get married,СВ,11.1,1,11,,жени́ться,,,,,,,,,,,,,,,,,,,,,,,,,,,,,,,,,,,,,,,,,,,,,,,,,,,,,,,,,,,,,,,,,,,
поздравля́ть,по–здравля́й+,to congratulate,НСВ,11.1,1,11,поздра́вить,,,,,,,,,,,,,,,,,,,,,,,,,,,,,,,,,,,,,,,,,,,,,,,,,,,,,,,,,,,,,,,,,,,,
поздра́вить,по–здра́ви+,to congratulate,СВ,11.1,1,11,,поздравля́ть,,,,,,,,,,,,,,,,,,,,,,,,,,,,,,,,,,,,,,,,,,,,,,,,,,,,,,,,,,,,,,,,,,,
жела́ть,жела́й+,to wish,НСВ,11.1,1,11,пожела́ть,,,,,,,,,,,,,,,,,,,,,,,,,,,,,,,,,,,,,,,,,,,,,,,,,,,,,,,,,,,,,,,,,,,,
пожела́ть,по–жела́й+,to wish,СВ,11.1,1,11,,жела́ть,,,,,,,,,,,,,,,,,,,,,,,,,,,,,,,,,,,,,,,,,,,,,,,,,,,,,,,,,,,,,,,,,,,
предложи́ть,пред–ложих+,to propose; to offer,СВ,11.1,1,11,,предлага́ть,,,,,,,,,,,,,,,,,,,,,,,,,,,,,,,,,,,,,,,,,,,,,,,,,,,,,,,,,,,,,,,,,,,
предлага́ть,пред–лага́й+,to propose; to offer,НСВ,11.1,1,11,предложи́ть,,,,,,,,,,,,,,,,,,,,,,,,,,,,,,,,,,,,,,,,,,,,,,,,,,,,,,,,,,,,,,,,,,,,
гуля́ть,гуля́й+,to take a walk; to stroll,НСВ,11.1,1,11,погуля́ть,,,,,,,,,,,,,,,,,,,,,,,,,,,,,,,,,,,,,,,,,,,,,,,,,,,,,,,,,,,,,,,,,,,,
нача́ть,нах–чн+,to begin,СВ,11.2,2,11,,начина́ть,,,,,,,,,,,,,,,,,,,,,,,,,,,,,,,,,,,,,,,,,,,,,,,,,,,,,,,,,,,,,,,,,,,
зако́нчить,за–ко́нчи+,to finish; to graduate from,СВ,11.2,2,11,,зака́нчивать,,,,,,,,,,,,,,,,,,,,,,,,,,,,,,,,,,,,,,,,,,,,,,,,,,,,,,,,,,,,,,,,,,,
поступа́ть,по–ступа́й+,to apply; to enroll; to matriculate,НСВ,11.2,2,11,поступи́ть,,,,,,,,,,,,,,,,,,,,,,,,,,,,,,,,,,,,,,,,,,,,,,,,,,,,,,,,,,,,,,,,,,,,
переста́ть,пере–ста́н+,to stop,СВ,11.2,2,11,,перестава́ть,,,,,,,,,,,,,,,,,,,,,,,,,,,,,,,,,,,,,,,,,,,,,,,,,,,,,,,,,,,,,,,,,,,
гото́виться,гото́ви+ся,to prepare; to study for a test,НСВ,11.2,2,11,подгото́виться,,,,,,,,,,,,,,,,,,,,,,,,,,,,,,,,,,,,,,,,,,,,,,,,,,,,,,,,,,,,,,,,,,,,
подгото́виться,под–гото́ви+ся,to prepare; to study for a test,СВ,11.2,2,11,,гото́виться,,,,,,,,,,,,,,,,,,,,,,,,,,,,,,,,,,,,,,,,,,,,,,,,,,,,,,,,,,,,,,,,,,,
зака́нчивать,за–ка́нчивай+,to finish; to graduate from,НСВ,11.2,2,11,зако́нчить,,,,,,,,,,,,,,,,,,,,,,,,,,,,,,,,,,,,,,,,,,,,,,,,,,,,,,,,,,,,,,,,,,,,
поступи́ть,по–ступих+,to enroll; to matriculate,СВ,11.2,2,11,,поступа́ть,,,,,,,,,,,,,,,,,,,,,,,,,,,,,,,,,,,,,,,,,,,,,,,,,,,,,,,,,,,,,,,,,,,
сдава́ть,с–дава́й+,to take an exam,НСВ,11.2,2,11,сдать,,,,,,,,,,,,,,,,,,,,,,,,,,,,,,,,,,,,,,,,,,,,,,,,,,,,,,,,,,,,,,,,,,,,
сдать,с–дахй+,to pass an exam,СВ,11.2,2,11,,сдава́ть,х,,,,,,,,,,,,,,,,,,,,,,,,,,,,,,,,,,,,,,,,,,,,,,,,,,,,,,,,,,,,,,,,,,
прожи́ть,прох–жив+,to live a certain amount of time,СВ,11.3,3,11,,жить,,,,,,,,,,,,,,,,,,,,,,,,,,,,,,,,,,,,,,,,,,,,,,,,,,,,,,,,,,,,,,,,,,,
ложи́ться,ложи́+ся,to lie down; to go to bed,НСВ,11.3,3,11,лечь,,,,,,,,,,,,,,,,,,,,,,,,,,,,,,,,,,,,,,,,,,,,,,,,,,,,,,,,,,,,,,,,,,,,
встава́ть,встава́й+,to get up; to stand up,НСВ,11.3,3,11,встать,,,,,,,,,,,,,,,,,,,,,,,,,,,,,,,,,,,,,,,,,,,,,,,,,,,,,,,,,,,,,,,,,,,,
лечь,ля́г+,to lie down; to go to bed,СВ,11.3,3,11,,ложи́ться,,,,,,,,,,,,,,,,,,,,,,,,,,,,,,,,,,,,,,,,,,,,,,,,,,,,,,,,,,,,,,,,,,,
встать,в–ста́н+,to get up; to stand up,СВ,11.3,3,11,,встава́ть,,,,,,,,,,,,,,,,,,,,,,,,,,,,,,,,,,,,,,,,,,,,,,,,,,,,,,,,,,,,,,,,,,,
сади́ться,сади́+ся,to sit down,НСВ,11.3,3,11,сесть,,,,,,,,,,,,,,,,,,,,,,,,,,,,,,,,,,,,,,,,,,,,,,,,,,,,,,,,,,,,,,,,,,,,
сесть,с[я́][е́]д+,to sit down,СВ,11.3,3,11,,сади́ться,,,,,,,,,,,,,,,,,,,,,,,,,,,,,,,,,,,,,,,,,,,,,,,,,,,,,,,,,,,,,,,,,,,
наде́ть,на–де́н+,to put on,СВ,11.4,4,11,,надева́ть,,,,,,,,,,,,,,,,,,,,,,,,,,,,,,,,,,,,,,,,,,,,,,,,,,,,,,,,,,,,,,,,,,,
поме́рить,по–ме́ри+,to try on; to measure,СВ,11.4,4,11,,ме́рить,,,,,,,,,,,,,,,,,,,,,,,,,,,,,,,,,,,,,,,,,,,,,,,,,,,,,,,,,,,,,,,,,,,
одева́ться,о–дева́й+ся,to get dressed,НСВ,11.4,4,11,оде́ться,,,,,,,,,,,,,,,,,,,,,,,,,,,,,,,,,,,,,,,,,,,,,,,,,,,,,,,,,,,,,,,,,,,,
надева́ть,на–дева́й+,to put on,НСВ,11.4,4,11,наде́ть,,,,,,,,,,,,,,,,,,,,,,,,,,,,,,,,,,,,,,,,,,,,,,,,,,,,,,,,,,,,,,,,,,,,
ме́рить,ме́ри+,to try on; to measure,НСВ,11.4,4,11,поме́рить,,,,,,,,,,,,,,,,,,,,,,,,,,,,,,,,,,,,,,,,,,,,,,,,,,,,,,,,,,,,,,,,,,,,
оде́ться,о–де́н+ся,to get dressed,СВ,11.4,4,11,,одева́ться,,,,,,,,,,,,,,,,,,,,,,,,,,,,,,,,,,,,,,,,,,,,,,,,,,,,,,,,,,,,,,,,,,,
выбира́ть,вы–бира́й+,to choose,НСВ,11.4,4,11,вы́брать,,,,,,,,,,,,,,,,,,,,,,,,,,,,,,,,,,,,,,,,,,,,,,,,,,,,,,,,,,,,,,,,,,,,
вы́брать,вы́–б[е]р[ах]+,to choose,СВ,11.4,4,11,,выбира́ть,,,,,,,,,,,,,,,,,,,,,,,,,,,,,,,,,,,,,,,,,,,,,,,,,,,,,,,,,,,,,,,,,,,
быва́ть,быва́й+,to occur; to be; to frequent,НСВ,11.4,4,11,,,,,,,,,,,,,,,,,,,,,,,,,,,,,,,,,,,,,,,,,,,,,,,,,,,,,,,,,,,,,,,,,,,,,
носи́ть,носих+,to wear; to carry,НСВ,11.4,4,11,,,,,,,,,,,,,,,,,,,,,,,,,,,,,,,,,,,,,,,,,,,,,,,,,,,,,,,,,,,,,,,,,,,,,
перее́хать,пере–е́[х][д][а]+,to move; to change residences; to cross by vehicle,СВ,11.5,5,11,,переезжа́ть,,,,,,,,,,,,,,,,,,,,,,,,,,,,,,,,,,,,,,,,,,,,,,,,,,,,,,,,,,,,,,,,,,,
служи́ть,служих+,to serve,НСВ,11.5,5,11,,,,,,,,,,,,,,,,,,,,,,,,,,,,,,,,,,,,,,,,,,,,,,,,,,,,,,,,,,,,,,,,,,,,,
расти́,ро́с+,to grow,НСВ,11.5,5,11,вы́расти,,,,,,,,,,,,,,,,,,,,,,,,,,,,,,,,,,,,,,,,,,,,,,,,,,,,,,,,,,,,,,,,,,,,
вы́расти,вы́–рос+,to grow up,СВ,11.5,5,11,,расти́,,,,,,,,,,,,,,,,,,,,,,,,,,,,,,,,,,,,,,,,,,,,,,,,,,,,,,,,,,,,,,,,,,,
продолжа́ть,про–должа́й+,to continue,НСВ,11.5,5,11,продо́лжить,,,,,,,,,,,,,,,,,,,,,,,,,,,,,,,,,,,,,,,,,,,,,,,,,,,,,,,,,,,,,,,,,,,,
опа́здывать,о–па́здывай+,to be late,НСВ,11.6,6,11,опозда́ть,,,,,,,,,,,,,,,,,,,,,,,,,,,,,,,,,,,,,,,,,,,,,,,,,,,,,,,,,,,,,,,,,,,,
опозда́ть,о–пазда́й+,to be late,СВ,11.6,6,11,,опа́здывать,,,,,,,,,,,,,,,,,,,,,,,,,,,,,,,,,,,,,,,,,,,,,,,,,,,,,,,,,,,,,,,,,,,
спеши́ть,спе́ши+,to hurry,НСВ,11.6,6,11,поспеши́ть,,,,,,,,,,,,,,,,,,,,,,,,,,,,,,,,,,,,,,,,,,,,,,,,,,,,,,,,,,,,,,,,,,,,
встреча́ть,встреча́й+,to meet,НСВ,11.6,6,11,встре́тить,,,,,,,,,,,,,,,,,,,,,,,,,,,,,,,,,,,,,,,,,,,,,,,,,,,,,,,,,,,,,,,,,,,,
встре́тить,встре́ти+,to meet,СВ,11.6,6,11,,встреча́ть,,,,,,,,,,,,,,,,,,,,,,,,,,,,,,,,,,,,,,,,,,,,,,,,,,,,,,,,,,,,,,,,,,,
боле́ть,боле́й+,to be sick,НСВ,11.7,7,11,заболе́ть,,,,,,,,,,,,,,,,,,,,,,,,,,,,,,,,,,,,,,,,,,,,,,,,,,,,,,,,,,,,,,,,,,,,
заболе́ть,за–боле́й+,to get sick,СВ,11.7,7,11,,боле́ть,,,,,,,,,,,,,,,,,,,,,,,,,,,,,,,,,,,,,,,,,,,,,,,,,,,,,,,,,,,,,,,,,,,
простуди́ться,про–студих+ся,to catch a cold,СВ,11.7,7,11,,простужа́ться,,,,,,,,,,,,,,,,,,,,,,,,,,,,,,,,,,,,,,,,,,,,,,,,,,,,,,,,,,,,,,,,,,,
простужа́ться,про–стужа́й+ся,to get a cold,НСВ,11.7,7,11,простуди́ться,,,,,,,,,,,,,,,,,,,,,,,,,,,,,,,,,,,,,,,,,,,,,,,,,,,,,,,,,,,,,,,,,,,,
ка́шлять,ка́шляй+,to cough,НСВ,11.7,7,11,ка́шлянуть,,,,,,,,,,,,,,,,,,,,,,,,,,,,,,,,,,,,,,,,,,,,,,,,,,,,,,,,,,,,,,,,,,,,
чиха́ть,чиха́й+,to sneeze,НСВ,11.7,7,11,чихну́ть,,,,,,,,,,,,,,,,,,,,,,,,,,,,,,,,,,,,,,,,,,,,,,,,,,,,,,,,,,,,,,,,,,,,
чихну́ть,чихну́2+,to sneeze,СВ,11.7,7,11,,чиха́ть,,,,,,,,,,,,,,,,,,,,,,,,,,,,,,,,,,,,,,,,,,,,,,,,,,,,,,,,,,,,,,,,,,,
боле́ть,боле́+,to hurt,НСВ,11.8,8,11,,,,,,,,,,,,,,,,,,,,,,,,,,,,,,,,,,,,,,,,,,,,,,,,,,,,,,,,,,,,,,,,,,,,,
беспоко́иться,беспоко́и+ся,to worry,НСВ,11.8,8,11,,,,,,,,,,,,,,,,,,,,,,,,,,,,,,,,,,,,,,,,,,,,,,,,,,,,,,,,,,,,,,,,,,,,,
уйти́,у–йд+,to leave on foot,СВ,12.1,1,12,,уходи́ть,,,,,,,,,,,,,,,,,,,,,,,,,,,,,,,,,,,,,,,,,,,,,,,,,,,,,,,,,,,,,,,,,,,
уходи́ть,у–ходих+,to leave on foot,НСВ,12.1,1,12,уйти́,,,,,,,,,,,,,,,,,,,,,,,,,,,,,,,,,,,,,,,,,,,,,,,,,,,,,,,,,,,,,,,,,,,,
вы́й́ти,вы́–йд+,to exit,СВ,12.1,1,12,,выходи́ть,,,,,,,,,,,,,,,,,,,,,,,,,,,,,,,,,,,,,,,,,,,,,,,,,,,,,,,,,,,,,,,,,,,
приезжа́ть,при–езжа́й+,to come; to arrive by vehicle,НСВ,12.1,1,12,прие́хать,,,,,,,,,,,,,,,,,,,,,,,,,,,,,,,,,,,,,,,,,,,,,,,,,,,,,,,,,,,,,,,,,,,,
прие́хать,при–е́[х][д][а]+,to come; to arrive by vehicle,СВ,12.1,1,12,,приезжа́ть,,,,,,,,,,,,,,,,,,,,,,,,,,,,,,,,,,,,,,,,,,,,,,,,,,,,,,,,,,,,,,,,,,,
уе́хать,у–е́[х][д][а]+,to leave by vehicle,СВ,12.1,1,12,,уезжа́ть,,,,,,,,,,,,,,,,,,,,,,,,,,,,,,,,,,,,,,,,,,,,,,,,,,,,,,,,,,,,,,,,,,,
уезжа́ть,у–езжа́й+,to leave by vehicle,НСВ,12.1,1,12,уе́хать,,,,,,,,,,,,,,,,,,,,,,,,,,,,,,,,,,,,,,,,,,,,,,,,,,,,,,,,,,,,,,,,,,,,
выходи́ть,вы–ходих+,to exit,НСВ,12.1,1,12,вы́йти,,,,,,,,,,,,,,,,,,,,,,,,,,,,,,,,,,,,,,,,,,,,,,,,,,,,,,,,,,,,,,,,,,,,
вой́ти́,во–йд+,to enter,СВ,12.1,1,12,,входи́ть,,,,,,,,,,,,,,,,,,,,,,,,,,,,,,,,,,,,,,,,,,,,,,,,,,,,,,,,,,,,,,,,,,,
происходи́ть,про–ис–ходих+,to happen; to take place,НСВ,12.1,1,12,произойти́,,,,,,,,,,,,,,,,,,,,,,,,,,,,,,,,,,,,,,,,,,,,,,,,,,,,,,,,,,,,,,,,,,,,
произой́ти́,про–изо–йд+,to happen; to take place,СВ,12.1,1,12,,происходи́ть,,,,,,,,,,,,,,,,,,,,,,,,,,,,,,,,,,,,,,,,,,,,,,,,,,,,,,,,,,,,,,,,,,,
поверну́ть,по–верну́2+,to turn,СВ,12.2,2,12,повора́чивать,,,,,,,,,,,,,,,,,,,,,,,,,,,,,,,,,,,,,,,,,,,,,,,,,,,,,,,,,,,,,,,,,,,,
перей́ти́,пере–йд+,to cross,СВ,12.2,2,12,,переходи́ть,,,,,,,,,,,,,,,,,,,,,,,,,,,,,,,,,,,,,,,,,,,,,,,,,,,,,,,,,,,,,,,,,,,
подой́ти́,под[о]–йд+,to go up to by foot; to approach,СВ,12.2,2,12,,подходи́ть,,,,,,,,,,,,,,,,,,,,,,,,,,,,,,,,,,,,,,,,,,,,,,,,,,,,,,,,,,,,,,,,,,,
дой́ти́,до–йд+,to go as far as on foot,СВ,12.2,2,12,,доходи́ть,,,,,,,,,,,,,,,,,,,,,,,,,,,,,,,,,,,,,,,,,,,,,,,,,,,,,,,,,,,,,,,,,,,
пройти́,про–йд+,to go past by foot; to pass by; to pass,СВ,12.2,2,12,,проходи́ть,,,,,,,,,,,,,,,,,,,,,,,,,,,,,,,,,,,,,,,,,,,,,,,,,,,,,,,,,,,,,,,,,,,
повора́чивать,по–во–ра́чивай+,to turn,НСВ,12.2,2,12,поверну́ть,,,,,,,,,,,,,,,,,,,,,,,,,,,,,,,,,,,,,,,,,,,,,,,,,,,,,,,,,,,,,,,,,,,,
переходи́ть,пере–ходих+,to cross,НСВ,12.2,2,12,перейти́,,,,,,,,,,,,,,,,,,,,,,,,,,,,,,,,,,,,,,,,,,,,,,,,,,,,,,,,,,,,,,,,,,,,
подходи́ть,под–ходих+,to go up to by foot; to approach,НСВ,12.2,2,12,подойти́,,,,,,,,,,,,,,,,,,,,,,,,,,,,,,,,,,,,,,,,,,,,,,,,,,,,,,,,,,,,,,,,,,,,
доходи́ть,до–ходих+,to go as far as on foot,НСВ,12.2,2,12,дойти́,,,,,,,,,,,,,,,,,,,,,,,,,,,,,,,,,,,,,,,,,,,,,,,,,,,,,,,,,,,,,,,,,,,,
проходи́ть,про–ходих+,to go past by foot; to pass by; to pass,НСВ,12.2,2,12,пройти́,,,,,,,,,,,,,,,,,,,,,,,,,,,,,,,,,,,,,,,,,,,,,,,,,,,,,,,,,,,,,,,,,,,,
дое́хать,до–е́[х][д][а]+,to go as far as by vehicle,СВ,12.2,2,12,,доезжа́ть,,,,,,,,,,,,,,,,,,,,,,,,,,,,,,,,,,,,,,,,,,,,,,,,,,,,,,,,,,,,,,,,,,,
доезжа́ть,до–езжа́й+,to go as far as by vehicle,НСВ,12.2,2,12,дое́хать,,,,,,,,,,,,,,,,,,,,,,,,,,,,,,,,,,,,,,,,,,,,,,,,,,,,,,,,,,,,,,,,,,,,
переезжа́ть,пере–езжа́й+,to move; to change residences; to cross by vehicle,НСВ,12.2,2,12,перее́хать,,,,,,,,,,,,,,,,,,,,,,,,,,,,,,,,,,,,,,,,,,,,,,,,,,,,,,,,,,,,,,,,,,,,
проезжа́ть,про–езжа́й+,to go past by vehicle; to pass by; to pass,НСВ,12.2,2,12,прое́хать,,,,,,,,,,,,,,,,,,,,,,,,,,,,,,,,,,,,,,,,,,,,,,,,,,,,,,,,,,,,,,,,,,,,
прое́хать,про–е́[х][д][а]+,to go past by vehicle; to pass by; to pass,СВ,12.2,2,12,,проезжа́ть,,,,,,,,,,,,,,,,,,,,,,,,,,,,,,,,,,,,,,,,,,,,,,,,,,,,,,,,,,,,,,,,,,,
подъе́хать,подъ–е́[х][д][а]+,to go up to by vehicle; to drive up to; to approach,СВ,12.2,2,12,,подъезжа́ть,,,,,,,,,,,,,,,,,,,,,,,,,,,,,,,,,,,,,,,,,,,,,,,,,,,,,,,,,,,,,,,,,,,
отвести́,от–вёд+,to take on foot,СВ,12.3,3,12,,отводи́ть,,,,,,,,,,,,,,,,,,,,,,,,,,,,,,,,,,,,,,,,,,,,,,,,,,,,,,,,,,,,,,,,,,,
отнести́,нёс+,to take carrying,СВ,12.3,3,12,,относи́ть,,,,,,,,,,,,,,,,,,,,,,,,,,,,,,,,,,,,,,,,,,,,,,,,,,,,,,,,,,,,,,,,,,,
перевезти́,пере–вёз+,to transport,СВ,12.3,3,12,,перевози́ть,,,,,,,,,,,,,,,,,,,,,,,,,,,,,,,,,,,,,,,,,,,,,,,,,,,,,,,,,,,,,,,,,,,
донести́,до–нёс+,to carry as far as; to denounce,СВ,12.3,3,12,,доноси́ть,,,,,,,,,,,,,,,,,,,,,,,,,,,,,,,,,,,,,,,,,,,,,,,,,,,,,,,,,,,,,,,,,,,
привезти́,при–вёз+,to bring; to deliver by conveyence,СВ,12.3,3,12,,привози́ть,,,,,,,,,,,,,,,,,,,,,,,,,,,,,,,,,,,,,,,,,,,,,,,,,,,,,,,,,,,,,,,,,,,
вы́глядеть,вы́–гляде+,to look like; to look,НСВ,12.3,3,12,,,,,,,,,,,,,,,,,,,,,,,,,,,,,,,,,,,,,,,,,,,,,,,,,,,,,,,,,,,,,,,,,,,,,
отводи́ть,от–водих+,to take on foot,НСВ,12.3,3,12,отвести́,,,,,,,,,,,,,,,,,,,,,,,,,,,,,,,,,,,,,,,,,,,,,,,,,,,,,,,,,,,,,,,,,,,,
относи́ть,пере–носих+,to take carrying,НСВ,12.3,3,12,отнести́,,,,,,,,,,,,,,,,,,,,,,,,,,,,,,,,,,,,,,,,,,,,,,,,,,,,,,,,,,,,,,,,,,,,
перевози́ть,пере–возих+,to transport across by vehicle,НСВ,12.3,3,12,перевезти́,,,,,,,,,,,,,,,,,,,,,,,,,,,,,,,,,,,,,,,,,,,,,,,,,,,,,,,,,,,,,,,,,,,,
доноси́ть,до–носих+,to carry as far as; to denounce,НСВ,12.3,3,12,донести́,,,,,,,,,,,,,,,,,,,,,,,,,,,,,,,,,,,,,,,,,,,,,,,,,,,,,,,,,,,,,,,,,,,,
привози́ть,при–возих+,to bring by vehicle,НСВ,12.3,3,12,привезти́,,,,,,,,,,,,,,,,,,,,,,,,,,,,,,,,,,,,,,,,,,,,,,,,,,,,,,,,,,,,,,,,,,,,
отвози́ть,от–возих+,to take by vehicle,НСВ,12.3,3,12,отвезти́,,,,,,,,,,,,,,,,,,,,,,,,,,,,,,,,,,,,,,,,,,,,,,,,,,,,,,,,,,,,,,,,,,,,
отвезти́,от–вёз+,to take by vehicle,СВ,12.3,3,12,,отвози́ть,,,,,,,,,,,,,,,,,,,,,,,,,,,,,,,,,,,,,,,,,,,,,,,,,,,,,,,,,,,,,,,,,,,
принести́,при–нёс+,to bring; to deliver on foot,СВ,12.3,3,12,,приноси́ть,,,,,,,,,,,,,,,,,,,,,,,,,,,,,,,,,,,,,,,,,,,,,,,,,,,,,,,,,,,,,,,,,,,
приноси́ть,при–носих+,to bring; to deliver on foot,НСВ,12.3,3,12,принести́,,,,,,,,,,,,,,,,,,,,,,,,,,,,,,,,,,,,,,,,,,,,,,,,,,,,,,,,,,,,,,,,,,,,
спасти́,с–пас+,to save,СВ,12.4,4,12,,спаса́ть,,,,,,,,,,,,,,,,,,,,,,,,,,,,,,,,,,,,,,,,,,,,,,,,,,,,,,,,,,,,,,,,,,,
улете́ть,у–лете́+,to fly away,СВ,12.4,4,12,,улета́ть,,,,,,,,,,,,,,,,,,,,,,,,,,,,,,,,,,,,,,,,,,,,,,,,,,,,,,,,,,,,,,,,,,,
спаса́ть,с–паса́й+,to save,НСВ,12.4,4,12,спасти́,,,,,,,,,,,,,,,,,,,,,,,,,,,,,,,,,,,,,,,,,,,,,,,,,,,,,,,,,,,,,,,,,,,,
улета́ть,у–лета́й+,to fly away,НСВ,12.4,4,12,улете́ть,,,,,,,,,,,,,,,,,,,,,,,,,,,,,,,,,,,,,,,,,,,,,,,,,,,,,,,,,,,,,,,,,,,,
прилете́ть,при–лете́+,to arrive flying,СВ,12.4,4,12,,прилета́ть,,,,,,,,,,,,,,,,,,,,,,,,,,,,,,,,,,,,,,,,,,,,,,,,,,,,,,,,,,,,,,,,,,,
прилета́ть,при–лета́й+,to arrive flying,НСВ,12.4,4,12,прилете́ть,,,,,,,,,,,,,,,,,,,,,,,,,,,,,,,,,,,,,,,,,,,,,,,,,,,,,,,,,,,,,,,,,,,,
забы́ть,за–б[ых][у́]д+,to forget,СВ,12.4,4,12,,забыва́ть,,,,,,,,,,,,,,,,,,,,,,,,,,,,,,,,,,,,,,,,,,,,,,,,,,,,,,,,,,,,,,,,,,,